core_cm4.h:1688:22:void __NVIC_EnableIRQ(IRQn_Type)	16	static
core_cm4.h:1724:22:void __NVIC_DisableIRQ(IRQn_Type)	16	static,ignoring_inline_asm
stm32f4xx_ll_exti.h:269:22:void LL_EXTI_EnableIT_0_31(uint32_t)	16	static
stm32f4xx_ll_exti.h:399:22:void LL_EXTI_EnableEvent_0_31(uint32_t)	16	static
stm32f4xx_ll_exti.h:662:22:void LL_EXTI_EnableFallingTrig_0_31(uint32_t)	16	static
stm32f4xx_ll_tim.h:1125:22:void LL_TIM_EnableCounter(TIM_TypeDef*)	16	static
stm32f4xx_ll_tim.h:1136:22:void LL_TIM_DisableCounter(TIM_TypeDef*)	16	static
stm32f4xx_ll_gpio.h:772:26:uint32_t LL_GPIO_ReadInputPort(GPIO_TypeDef*)	16	static
hx711.cpp:6:1:hx711::hx711(TIM_TypeDef*, uint32_t, GPIO_TypeDef*, uint32_t, uint8_t)	24	static
hx711.cpp:30:1:hx711::~hx711()	16	static
hx711.cpp:34:6:void hx711::ccr(bool)	16	static
hx711.cpp:54:6:void hx711::set_calibration(float, float)	24	static
hx711.cpp:59:6:void hx711::raw_read()	32	static
hx711.cpp:75:5:int hx711::read(TaskHandle_t)	32	static
hx711.cpp:127:10:uint32_t hx711::get_measurement(TaskHandle_t)	16	static
hx711.cpp:131:7:float hx711::get_weight_kg(TaskHandle_t)	24	static
hx711.cpp:141:6:void hx711::hx_ready()	32	static
hx711.cpp:150:6:void hx711_sck_callback()	8	static
hx711.cpp:154:6:void hx711_dout_callback()	8	static
